{
  "inbox": [
    {
      "id": "0001",
      "subject": "Delivery order #32232323",
      "from": "delivery@eshop.coco.com",
      "text": "Lorem ipsum dolor sit amet, consectetur adipisicing elit. Architecto consequuntur fuga hic iusto nesciunt nostrum porro quos ullam. Cumque dolor eaque eveniet pariatur quam qui repellat repellendus reprehenderit sint ut!Lorem ipsum dolor sit amet, consectetur adipisicing elit. Architecto consequuntur fuga hic iusto nesciunt nostrum porro quoolor sit amet, consectetur adipisicing elit. Architecto consequuntur fuga hic iusto nesciunt nostrum porro quos ullam. Cumque dolor eaque eveniet pariatur quam qui repellat repellendus reprehenderit sint ut!"
    },
    {
      "id":  "0002",
      "subject": "You're fired",
      "from": "boss@bossy.boss.com",
      "text": "Lorem ipsum dolor sit amet, consectetur adipisicing elit. Architecto consequuntur fuga hic iusto nesciunt nostrum porro quos ullam. Cumque dolor eaque eveniet pariatur quam qui repellat repellendus reprehenderit sint ut!Lorem ipsum dolor sit amet, consectetur adipisicing elit. Architecto consequuntur fuga hic iusto nesciunt nostrum porro quos uehenderit sint ut!Lorem ipsum dolor sit amet, consectetur adipisicing elit. Architecto consequuntur fuga hic iusto nesciunt nostrum porro quos ullam. Cumque dolor eaque eveniet pariatur quam qui repellat repellendus reprehenderit sint ut!"
    },
    {
      "id":  "0003",
      "subject": "Your car is ready!",
      "from": "legasy@service.com",
      "text": "Lorem ipsum dolor sit amet, consectetur adipisicing elit. Architecto consequunturt repellendus reprehenderit sint ut!Lorem ipsum dolor sit amet, consectetur adipisicing elit. Architecto consequuntur fuga hic iusto nesciunt nostrum porro quos ullam. Cumque dolor eaque eveniet pariatur quam qui repellat repellendus reprehenderit sint ut!Lorem ipsum dolor sit amet, consectetur adipisicing elit. Architecto consequuntur fuga hic ius dolor eaque eveniet pariatur quam qui repellat repellendus reprehenderit sint ut!"
    },
    {
      "id":  "0004",
      "subject": "Wat do you think about our new features",
      "from": "body-parser@npm.no",
      "text": "Lorem ipsum dolor sit amet, consque eveniet pariatur quam qui repellat repellendus reprehenderit sint ut!Lorem ipsum dolor sit amet, consectetur adipisicing elit. Architecto consequuntur fuga hic iusto nesciunt nostrum porro quos ullam. Cumque dolor eaque eveniet pariatur quam qui repellat repellendus reprehenderit sint ut!Lorem ipsum dolor sit amet, consectetur adipisicing elit. Architecto consequuntur fuga hic iusto nesciunt nostrum porro quos ullam. Cumque dolor eaque eveniet pariatur quam qui repellat repellendus reprehenderit sint ut!"
    },
    {
      "id":  "0005",
      "subject": "TOP SALE!! 90% OFF",
      "from": "sales@kexshop.nd",
      "text": "Lorem ipsum dolor sadipisicing elit. Architecto consequuntur fuga hic iusto nesciunt nostrum porro quos ullam. Cumque dolor eaque eveniet pariatur quam qui repellat repellendus reprehenderit sint ut!"
    },
    {
      "id":  "0006",
      "subject": "Ya tibya po IP vichislil!!!",
      "from": "unknown",
      "text": "Lorem ipsum dolor sit amet, consectetur adipisicing elit. Architecto consequuntur fuga hic iusto nesciunt nostrum porro quos ullam. Cumque dolor eaque eveniet pariatur quam qui repellat repellendus reprehenderit sint ut!Lorem ipsum dolor sit amet, consectetur adipisicing elit. Architecto consequuntur fuga hic iusto nesciunt nostrum porro quos ullam. Cumque dolor eaque eveniet pariatur quam qui repellat repellendus reprehenderit sint ut!Lorem ipsum dolor sit amet, consectetur adipisicing elit. Architecto consequuntur fuga hic iusto nesciunt nostrum porro quos ullam. Cumque dolor eaque eveniet pariatur quam qui repellat repellendus reprehenderit sint ut!"
    }
  ],
  "sent": [
    {
      "id":  "0007",
      "subject": "Give me back my money",
      "to": "sales@kexshop.nd",
      "text": "Lorem ipsum dolor sit amet, consectetur adipisicing elit. Architecto consequuntur fuga hic iusto nesciunt nostrum porro quos ullam. Cumque dolor eaque eveniet pariatur quam qui repellat repellendus reprehenderit sint ut!Lorem ipsum dolor sit amet, consectetur adipisicing elit. Architecto consequuntur fuga hic iusto nesciunt nostrum porro quos ullam. Cumque dolor eaque eveniet pariatur quam qui repellat repellendus reprehenderit sint ut!Lorem ipsum dolor sit amet, consectetur adipisicing elit. Architecto consequuntur fuga hic iusto nesciunt nostrum porro quos ullam. Cumque dolor eaque eveniet pariatur quam qui repellat repellendus reprehenderit sint ut!"
    },
    {
      "id":  "0008",
      "subject": "Contract #588820 closed",
      "to": "big-boss@bossy.boss.com",
      "text": "Lorem ipsum dolor sit amet, consectetur adipisicing elit. Architecto consequuntur fuga hic iusto nesciunt nostrum porro quos ullam. Cumque dolor eaque eveniet pariatur quam qui repellat repellendus reprehenderit sint ut!Lorem ipsum dolor sit amet, consectetur adipisicing elit. Architecto consequuntur fuga hic iusto nesciunt nostrum porro quos ullam. Cumque dolor eaque eveniet pariatur quam qui repellat repellendus reprehenderit sint ut!Lorem ipsum dolor sit amet, consectetur adipisicing elit. Architecto consequuntur fuga hic iusto nesciunt nostrum porro quos ullam. Cumque dolor eaque eveniet pariatur quam qui repellat repellendus reprehenderit sint ut!"
    }
  ],
  "draft": [
    {
      "id":  "0009",
      "subject": "",
      "to": "hr@terrasoft",
      "text": "I'm looking for a job...."
    },
    {
      "id":  "00010",
      "subject": "About Tuesday meeting",
      "to": "nobody@from-the.wc",
      "text": ""
    },
    {
      "id":  "00011",
      "subject": "",
      "to": "",
      "text": "What did yo mean, saying "
    }
  ],
  "spam": []
}