[
	{
		"id": "1",
		"name": "Margherita",
		"price": "100",
		"picture": "./picture/Margherita.jpg",
		"articule": "123425678",
		"color": "yellow"
	},
	{
		"id": "2",
		"name": "Sea",
		"price": "180",
		"picture": "./picture/Sea.jpg",
		"articule": "098765345",
		"color": "yellow"
	},
	{
		"id": "3",
		"name": "Mushroom",
		"price": "140",
		"picture": "./picture/Mushroom.jpg",
		"articule": "098766789",
		"color": "yellow"
	},
	{
		"id": "4",
		"name": "Meating",
		"price": "140",
		"picture": "./picture/Meat.jpg",
		"articule": "123451234",
		"color": "yellow"
	},
	{
		"id": "5",
		"name": "4Cheese",
		"price": "170",
		"picture": "./picture/4Cheese.jpg",
		"articule": "234567809",
		"color": "yellow"
	},
	{
		"id": "6",
		"name": "Papperoni",
		"price": "160",
		"picture": "./picture/Paperoni.jpg",
		"articule": "987650234",
		"color": "yellow"
	},
	{
		"id": "7",
		"name": "Pesto",
		"price": "155",
		"picture": "./picture/Pesto.jpg",
		"articule": "678345098",
		"color": "yellow"
	},
	{
		"id": "8",
		"name": "Four Seasons",
		"price": "150",
		"picture": "./picture/4Seasons.jpg",
		"articule": "123456734",
		"color": "yellow"
	},
	{
		"id": "9",
		"name": "Caesar",
		"price": "160",
		"picture": "./picture/Caesar.jpg",
		"articule": "678901232",
		"color": "yellow"
	},
	{
		"id": "10",
		"name": "Salmon",
		"price": "190",
		"picture": "./picture/Salmons.jpg",
		"articule": "987623454",
		"color": "yellow"
	},
	{
		"id": "11",
		"name": "Vegeterian",
		"price": "145",
		"picture": "./picture/Vegeterian.jpg",
		"articule": "876545412",
		"color": "yellow"
	}
]
